{
  "Name": "avceadff",
  "IconId": 0,
  "FilePath": "D:/Unity Projects/nodelabvr/Assets/../Lib/avceadff/avceadff.m",
  "Parameters": [
    {
      "Name": "a",
      "Type": 0,
      "Description": "null",
      "DefaultValue": 0.0,
      "DeltaValue": 1.0,
      "UnitOfMeasure": "",
      "ChemicalComposition": "null",
      "PhysicalState": "null"
    },
    {
      "Name": "b",
      "Type": 1,
      "Description": "null",
      "DefaultValue": 0.0,
      "DeltaValue": 1.0,
      "UnitOfMeasure": "",
      "ChemicalComposition": "null",
      "PhysicalState": "null"
    }
  ],
  "MainColor": {
    "x": 0.367177,
    "y": 1.0,
    "z": 1.0,
    "w": 1.0
  }
}