%YAML 1.1
%TAG !u! tag:unity3d.com,2011:
--- !u!114 &-4286850051983458142
MonoBehaviour:
  m_ObjectHideFlags: 1
  m_CorrespondingSourceObject: {fileID: 0}
  m_PrefabInstance: {fileID: 0}
  m_PrefabAsset: {fileID: 0}
  m_GameObject: {fileID: 0}
  m_Enabled: 1
  m_EditorHideFlags: 0
  m_Script: {fileID: 11500000, guid: f6ab6487237ff124ea4c2aa5de9ce3fb, type: 3}
  m_Name: MainEditorState
  m_EditorClassIdentifier: 
  canvas: {fileID: 11400000}
  parentEditor: {fileID: 0}
  selectedNode: {fileID: 0}
  panOffset: {x: -149.40002, y: -204.2}
  zoom: 2.6
--- !u!114 &11400000
MonoBehaviour:
  m_ObjectHideFlags: 0
  m_CorrespondingSourceObject: {fileID: 0}
  m_PrefabInstance: {fileID: 0}
  m_PrefabAsset: {fileID: 0}
  m_GameObject: {fileID: 0}
  m_Enabled: 1
  m_EditorHideFlags: 0
  m_Script: {fileID: 11500000, guid: 3a9396c92b94b064883de5903a0ec1b2, type: 3}
  m_Name: CurSession
  m_EditorClassIdentifier: 
  editorStates:
  - {fileID: -4286850051983458142}
  saveName: Assets\Node_Editor\Resources\Saves\EmptyCanvas
  savePath: Assets\Node_Editor\Resources\Saves\EmptyCanvas.asset
  livesInScene: 0
  nodes: []
  cNodes: []
  groups: []
  rootNode: {fileID: 0}
