{
  "Name": "daefa",
  "IconId": 0,
  "FilePath": "D:/Unity Projects/nodelabvr/Assets/../Lib/daefa/daefa.m",
  "Parameters": [
    {
      "Name": "a",
      "Type": 0,
      "Description": "null",
      "DefaultValue": 0.0,
      "DeltaValue": 1.0,
      "UnitOfMeasure": "",
      "ChemicalComposition": "null",
      "PhysicalState": "null"
    },
    {
      "Name": "b",
      "Type": 1,
      "Description": "null",
      "DefaultValue": 0.0,
      "DeltaValue": 1.0,
      "UnitOfMeasure": "",
      "ChemicalComposition": "null",
      "PhysicalState": "null"
    }
  ]
}